Design Route Status
                                               :      # nets :
   ------------------------------------------- : ----------- :
   # of logical nets.......................... :      114359 :
       # of nets not needing routing.......... :       79119 :
           # of internally routed nets........ :       70950 :
           # of nets with no loads............ :        8169 :
       # of routable nets..................... :       35240 :
           # of fully routed nets............. :       35240 :
       # of nets with routing errors.......... :           0 :
   ------------------------------------------- : ----------- :

